Name;Duration;position
apex;3;X,0,0,2.0
leap_acq;1;X,-0.14,-0.06,2.74
leap_acq;1;X,-0.08,-0.08,2.43
leap_acq;1;X,-0.11,-0.09,2.43
leap_acq;1;X,0.31,-0.91,1.31
leap_acq;1;X,0.32,-0.97,1.24
leap_acq;1;X,0.53,-0.43,1.53
leap_acq;1;X,0.53,-0.42,1.51
leap_acq;1;X,0.35,-0.98,1.25
leap_acq;1;X,-0.10,-0.09,2.40
leap_acq;1;X,-0.09,-0.10,2.39
leap_acq;1;X,-0.09,-0.11,2.47
leap_acq;1;X,-0.04,-0.10,2.35
restart;3;X,0,0,2.0
